8_behavioral_even/waveform.vcd
$version Generated by VerilatedVcd $end
$timescale 1s $end
 $scope module TOP $end
  $var wire 1 # x $end
  $var wire 1 $ y $end
  $var wire 1 % z $end
  $var wire 1 & f $end
  $scope module simple_circuit $end
   $var wire 1 # x $end
   $var wire 1 $ y $end
   $var wire 1 % z $end
   $var wire 1 & f $end
  $upscope $end
 $upscope $end
$enddefinitions $end


#0
0#
0$
0%
1&
#1
1%
0&
#2
1$
0%
1&
#3
1%
0&
#4
1#
0$
0%
1&
#5
1%
0&
#6
1$
0%
1&
#7
1%
0&
